<svg width="147" height="41" viewBox="0 0 147 41" fill="none" xmlns="http://www.w3.org/2000/svg">
<rect x="0.5" y="0.5" width="146" height="40" fill="#F2F2F2"/>
<rect x="0.5" y="0.5" width="146" height="40" stroke="url(#paint0_linear_232_408)"/>
<defs>
<linearGradient id="paint0_linear_232_408" x1="0" y1="20.5" x2="147" y2="20.5" gradientUnits="userSpaceOnUse">
<stop stop-color="#0061AF"/>
<stop offset="1" stop-color="#ED1C24"/>
</linearGradient>
</defs>
</svg>
