<svg width="16" height="14" viewBox="0 0 16 14" fill="none" xmlns="http://www.w3.org/2000/svg">
<path d="M9.76085 0.188965C9.58832 0.289959 9.41684 0.392004 9.24326 0.490894C9.11807 0.562431 8.98657 0.621345 8.86664 0.700246C8.71199 0.80124 8.54998 0.840164 8.36483 0.830696C8.12812 0.819124 7.88931 0.82754 7.65261 0.82754C7.61684 0.82754 7.58107 0.82754 7.53478 0.848581C7.56845 0.878037 7.60106 0.907494 7.63578 0.935898C8.06395 1.29148 8.41953 1.70387 8.61731 2.23304C8.95817 3.14514 8.88978 4.35391 7.9335 5.22182C7.73256 5.40382 7.51374 5.56478 7.31491 5.74783C7.16763 5.88249 7.02245 6.02557 6.90778 6.18758C6.66056 6.53369 6.70158 6.94398 7.01403 7.23223C7.21918 7.42265 7.45378 7.58045 7.66944 7.7614C8.00188 8.04123 8.34379 8.3116 8.65518 8.61458C9.62304 9.55614 9.61042 10.8943 8.99604 11.8727C8.57313 12.5449 7.96716 12.9983 7.24969 13.3118C6.3986 13.6853 5.49913 13.8137 4.57651 13.8105C3.95161 13.8084 3.33407 13.7421 2.73547 13.5538C2.09059 13.3508 1.51724 13.0373 1.10064 12.485C0.927054 12.2556 0.80502 12.001 0.739795 11.7191C0.730327 11.677 0.71665 11.636 0.705078 11.595C0.705078 11.3677 0.705078 11.1394 0.705078 10.9122C0.71139 10.8933 0.719806 10.8743 0.724014 10.8554C0.818696 10.3946 1.03226 9.99483 1.35417 9.65398C1.81391 9.16689 2.38726 8.86707 3.01531 8.66087C3.70964 8.43258 4.42712 8.33475 5.15301 8.28004C5.28872 8.26952 5.42443 8.259 5.59065 8.24533C5.07727 7.67618 4.85319 7.06601 5.21929 6.33907C5.07622 6.34853 4.95734 6.358 4.83741 6.36432C4.22092 6.39798 3.62443 6.30645 3.08264 6.00242C2.08848 5.44695 1.56879 4.59377 1.60876 3.45443C1.64558 2.40452 2.15792 1.59236 3.00479 0.989551C3.5834 0.578212 4.23986 0.359392 4.93735 0.257346C5.11198 0.232098 5.28767 0.212109 5.46336 0.188965C6.89621 0.188965 8.328 0.188965 9.76085 0.188965ZM5.38025 13.0604C5.43706 13.0604 5.48756 13.0615 5.53805 13.0604C6.11877 13.052 6.68686 12.9763 7.20866 12.7006C7.75781 12.4113 8.10708 11.9726 8.18388 11.3425C8.25647 10.7512 8.0408 10.2694 7.6221 9.86333C7.19919 9.45409 6.71421 9.12586 6.23554 8.78922C6.20819 8.77028 6.16716 8.76502 6.13139 8.76187C5.69901 8.72294 5.26979 8.76923 4.84162 8.82499C4.27142 8.89863 3.72016 9.03644 3.21519 9.3289C2.45248 9.7718 2.11268 10.604 2.37253 11.414C2.54506 11.9516 2.91537 12.3187 3.39614 12.5849C4.01473 12.9279 4.69118 13.0373 5.38025 13.0604ZM3.20362 2.66016C3.20888 3.13883 3.28884 3.57752 3.43507 4.00464C3.62127 4.54958 3.88743 5.04719 4.33139 5.43117C5.23612 6.21282 6.35863 5.82884 6.83414 5.25549C7.09188 4.94409 7.1771 4.57168 7.18657 4.17927C7.2034 3.49441 7.0477 2.84531 6.75839 2.22778C6.55641 1.7954 6.28919 1.41036 5.9031 1.11895C5.13934 0.542443 4.03787 0.709714 3.51607 1.4819C3.27095 1.84589 3.20783 2.25829 3.20362 2.66016Z" fill="#D62B28"/>
<path d="M15.4236 2.6582H10.5664V3.8838H15.4236V2.6582Z" fill="#D62B28"/>
<path d="M13.6084 5.69994L13.6084 0.842773L12.3828 0.842773V5.69994H13.6084Z" fill="#D62B28"/>
</svg>
