<svg width="18" height="19" viewBox="0 0 18 19" fill="none" xmlns="http://www.w3.org/2000/svg">
<path d="M15.3637 2.44495C17.0159 3.97732 17.9609 6.04564 17.9988 8.21257C18.0367 10.3795 17.1645 12.4751 15.5666 14.0564L15.3637 14.2512L11.1208 18.1856C10.5824 18.6847 9.85967 18.9752 9.09897 18.9985C8.33827 19.0217 7.59648 18.7759 7.02387 18.3109L6.87988 18.1856L2.63599 14.2502C0.948193 12.6848 0 10.5615 0 8.3476C0 6.13368 0.948193 4.01043 2.63599 2.44495C4.32378 0.879477 6.61292 0 8.99982 0C11.3867 0 13.6759 0.879477 15.3637 2.44495ZM8.99982 5.56508C8.60587 5.56508 8.21577 5.63705 7.8518 5.77689C7.48783 5.91672 7.15712 6.12168 6.87856 6.38006C6.59999 6.63844 6.37901 6.94518 6.22825 7.28277C6.07749 7.62037 5.9999 7.98219 5.9999 8.3476C5.9999 8.713 6.07749 9.07483 6.22825 9.41242C6.37901 9.75001 6.59999 10.0568 6.87856 10.3151C7.15712 10.5735 7.48783 10.7785 7.8518 10.9183C8.21577 11.0581 8.60587 11.1301 8.99982 11.1301C9.79545 11.1301 10.5585 10.837 11.1211 10.3151C11.6837 9.79331 11.9997 9.08557 11.9997 8.3476C11.9997 7.60963 11.6837 6.90188 11.1211 6.38006C10.5585 5.85824 9.79545 5.56508 8.99982 5.56508Z" fill="#F2F2F2"/>
</svg>
