<svg width="27" height="27" viewBox="0 0 27 27" fill="none" xmlns="http://www.w3.org/2000/svg">
<g clip-path="url(#clip0_224_4223)">
<path d="M13.5 23.625C19.0919 23.625 23.625 19.0919 23.625 13.5C23.625 7.90812 19.0919 3.375 13.5 3.375C7.90812 3.375 3.375 7.90812 3.375 13.5C3.375 19.0919 7.90812 23.625 13.5 23.625Z" stroke="#0061AF" stroke-width="0.833333" stroke-linecap="round" stroke-linejoin="round"/>
<path d="M16.65 10.1248C16.4462 9.77129 16.1501 9.47985 15.7934 9.28168C15.4367 9.08351 15.0328 8.98608 14.625 8.99981H12.375C11.7783 8.99981 11.206 9.23686 10.784 9.65882C10.3621 10.0808 10.125 10.6531 10.125 11.2498C10.125 11.8465 10.3621 12.4188 10.784 12.8408C11.206 13.2628 11.7783 13.4998 12.375 13.4998H14.625C15.2217 13.4998 15.794 13.7369 16.216 14.1588C16.6379 14.5808 16.875 15.1531 16.875 15.7498C16.875 16.3465 16.6379 16.9188 16.216 17.3408C15.794 17.7628 15.2217 17.9998 14.625 17.9998H12.375C11.9672 18.0135 11.5633 17.9161 11.2066 17.7179C10.8499 17.5198 10.5538 17.2283 10.35 16.8748" stroke="#0061AF" stroke-width="0.833333" stroke-linecap="round" stroke-linejoin="round"/>
<path d="M13.5 18V20.25M13.5 6.75V9V6.75Z" stroke="#0061AF" stroke-width="0.833333" stroke-linecap="round" stroke-linejoin="round"/>
</g>
<defs>
<clipPath id="clip0_224_4223">
<rect width="27" height="27" fill="white"/>
</clipPath>
</defs>
</svg>
