<svg width="18" height="18" viewBox="0 0 18 18" fill="none" xmlns="http://www.w3.org/2000/svg">
<path fill-rule="evenodd" clip-rule="evenodd" d="M4.35485 0.53699C5.21074 0.182469 6.12808 0 7.05448 0C7.98089 0 8.89823 0.182469 9.75412 0.53699C10.61 0.891511 11.3877 1.41114 12.0428 2.06621C12.6978 2.72128 13.2175 3.49896 13.572 4.35485C13.9265 5.21074 14.109 6.12808 14.109 7.05448C14.109 7.98089 13.9265 8.89823 13.572 9.75412C13.2175 10.61 12.6978 11.3877 12.0428 12.0428C11.3877 12.6978 10.61 13.2175 9.75412 13.572C8.89823 13.9265 7.98089 14.109 7.05448 14.109C6.12808 14.109 5.21074 13.9265 4.35485 13.572C3.49896 13.2175 2.72128 12.6978 2.06621 12.0428C1.41114 11.3877 0.891512 10.61 0.536991 9.75412C0.18247 8.89823 0 7.98089 0 7.05448C0 6.12808 0.18247 5.21074 0.536991 4.35485C0.891512 3.49896 1.41114 2.72128 2.06621 2.06621C2.72128 1.41114 3.49896 0.891511 4.35485 0.53699ZM7.05448 1.36538C6.30738 1.36538 5.56759 1.51254 4.87736 1.79844C4.18713 2.08434 3.55996 2.5034 3.03168 3.03168C2.5034 3.55996 2.08434 4.18713 1.79844 4.87736C1.51254 5.56759 1.36538 6.30738 1.36538 7.05448C1.36538 7.80159 1.51254 8.54137 1.79844 9.23161C2.08434 9.92184 2.5034 10.549 3.03168 11.0773C3.55996 11.6056 4.18713 12.0246 4.87736 12.3105C5.56759 12.5964 6.30738 12.7436 7.05448 12.7436C7.80159 12.7436 8.54138 12.5964 9.23161 12.3105C9.92184 12.0246 10.549 11.6056 11.0773 11.0773C11.6056 10.549 12.0246 9.92184 12.3105 9.23161C12.5964 8.54138 12.7436 7.80159 12.7436 7.05448C12.7436 6.30738 12.5964 5.56759 12.3105 4.87736C12.0246 4.18713 11.6056 3.55996 11.0773 3.03168C10.549 2.5034 9.92184 2.08434 9.23161 1.79844C8.54138 1.51254 7.80159 1.36538 7.05448 1.36538Z" fill="#0061AF"/>
<path fill-rule="evenodd" clip-rule="evenodd" d="M11.1231 11.123C11.3897 10.8564 11.8219 10.8564 12.0885 11.123L17.5501 16.5846C17.8167 16.8512 17.8167 17.2834 17.5501 17.55C17.2835 17.8166 16.8512 17.8166 16.5846 17.55L11.1231 12.0885C10.8564 11.8219 10.8564 11.3896 11.1231 11.123Z" fill="#0061AF"/>
</svg>
