<svg width="75" height="75" viewBox="0 0 75 75" fill="none" xmlns="http://www.w3.org/2000/svg">
<g clip-path="url(#clip0_218_69)">
<path d="M9.375 15.625H65.625" stroke="#FF2825" stroke-width="6.25" stroke-linecap="round" stroke-linejoin="round"/>
<path d="M9.375 59.375H65.625" stroke="#FF2825" stroke-width="6.25" stroke-linecap="round" stroke-linejoin="round"/>
<path d="M12.5 28.125L18.75 46.875H21.875L28.125 28.125" stroke="#FF2825" stroke-width="6.25" stroke-linecap="round" stroke-linejoin="round"/>
<path d="M37.5 28.125V46.875" stroke="#FF2825" stroke-width="6.25" stroke-linecap="round" stroke-linejoin="round"/>
<path d="M50 46.875V28.125H56.25C57.9076 28.125 59.4973 28.7835 60.6694 29.9556C61.8415 31.1277 62.5 32.7174 62.5 34.375C62.5 36.0326 61.8415 37.6223 60.6694 38.7944C59.4973 39.9665 57.9076 40.625 56.25 40.625H50" stroke="#FF2825" stroke-width="6.25" stroke-linecap="round" stroke-linejoin="round"/>
</g>
<defs>
<clipPath id="clip0_218_69">
<rect width="75" height="75" fill="white"/>
</clipPath>
</defs>
</svg>
