<svg width="100" height="100" viewBox="0 0 100 100" fill="none" xmlns="http://www.w3.org/2000/svg">
<g clip-path="url(#clip0_224_3536)">
<path d="M24.6044 20.8333H38.8461C39.6786 20.8338 40.492 21.0838 41.1812 21.5509C41.8704 22.0181 42.4038 22.681 42.7127 23.4541L47.4752 35.3541C48.2498 37.2916 49.4971 39.0044 51.1033 40.3362C52.7096 41.6681 54.6236 42.5767 56.6711 42.9791L76.3252 46.8375C78.2998 47.2257 80.0782 48.2876 81.3566 49.8418C82.6349 51.396 83.3337 53.3459 83.3336 55.3583V58.3333C83.3336 59.4384 82.8946 60.4982 82.1132 61.2796C81.3318 62.061 80.272 62.5 79.1669 62.5H21.2711C20.687 62.5029 20.1088 62.383 19.5741 62.148C19.0393 61.9131 18.56 61.5683 18.1671 61.1362C17.7742 60.704 17.4765 60.194 17.2935 59.6394C17.1104 59.0847 17.046 58.4978 17.1044 57.9166L20.4377 24.5833C20.5414 23.552 21.0257 22.5963 21.7962 21.9029C22.5666 21.2095 23.5679 20.8281 24.6044 20.8333Z" stroke="#ED1C24" stroke-width="6.25" stroke-linecap="round" stroke-linejoin="round"/>
<path d="M12.5 79.1667H83.3333C84.4384 79.1667 85.4982 78.7277 86.2796 77.9463C87.061 77.1649 87.5 76.1051 87.5 75" stroke="#ED1C24" stroke-width="6.25" stroke-linecap="round" stroke-linejoin="round"/>
<path d="M37.5 62.5V79.1667" stroke="#ED1C24" stroke-width="6.25" stroke-linecap="round" stroke-linejoin="round"/>
<path d="M62.5 62.5V79.1667" stroke="#ED1C24" stroke-width="6.25" stroke-linecap="round" stroke-linejoin="round"/>
</g>
<defs>
<clipPath id="clip0_224_3536">
<rect width="100" height="100" fill="white"/>
</clipPath>
</defs>
</svg>
