<svg width="13" height="14" viewBox="0 0 13 14" fill="none" xmlns="http://www.w3.org/2000/svg">
<path d="M4.50261 13.747C4.50078 13.694 4.49805 13.642 4.49805 13.5891C4.49805 10.4047 4.49805 7.22027 4.49805 4.03587C4.49805 3.97928 4.49805 3.9236 4.49805 3.85972C5.39614 3.85972 6.28054 3.85972 7.17955 3.85972C7.17955 4.10979 7.17955 4.35349 7.17955 4.63277C7.27265 4.56067 7.3411 4.50956 7.40773 4.45662C7.79471 4.14539 8.2255 3.92269 8.72475 3.87249C9.29975 3.81499 9.86379 3.88983 10.4114 4.0742C11.2073 4.34253 11.8407 4.8144 12.2496 5.56007C12.5444 6.09856 12.6913 6.6836 12.695 7.29054C12.7096 9.42899 12.7032 11.5684 12.705 13.7077C12.705 13.7205 12.7014 13.7342 12.6995 13.747C11.7595 13.747 10.8194 13.747 9.87931 13.747C9.87931 11.7089 9.87931 9.67086 9.8784 7.63281C9.8784 7.51416 9.8711 7.39551 9.85741 7.27777C9.80356 6.80134 9.52062 6.45451 9.05606 6.34408C8.83792 6.29205 8.60427 6.28384 8.37792 6.29023C7.64138 6.31031 7.18046 6.79404 7.18046 7.52876C7.18046 9.54947 7.18046 11.5693 7.18138 13.59C7.18138 13.642 7.18777 13.6949 7.19142 13.747C6.29423 13.747 5.39797 13.747 4.50261 13.747Z" fill="#D62B28"/>
<path d="M0.917713 13.7471C0.916801 13.7033 0.914062 13.6595 0.914062 13.6157C0.914062 10.4176 0.914062 7.22042 0.914062 4.02232C0.914062 3.9703 0.914062 3.91919 0.914062 3.85986C1.80486 3.85986 2.68104 3.85986 3.58005 3.85986C3.58005 7.15561 3.58005 10.4514 3.58005 13.748C2.69291 13.7471 1.80486 13.7471 0.917713 13.7471Z" fill="#D62B28"/>
<path d="M2.41975 0.251953C2.68535 0.31858 2.92904 0.424453 3.14078 0.607905C3.73039 1.11902 3.72309 2.11568 3.11979 2.61128C2.48456 3.13334 1.66678 3.04754 1.15384 2.40501C0.671939 1.80171 0.862693 0.820564 1.54174 0.451834C1.70055 0.365128 1.88035 0.317667 2.05102 0.251953C2.17424 0.251953 2.29654 0.251953 2.41975 0.251953Z" fill="#D62B28"/>
</svg>
