<svg width="330" height="52" viewBox="0 0 330 52" fill="none" xmlns="http://www.w3.org/2000/svg">
<path d="M282.735 24.8542C282.331 23.115 281.603 21.659 280.501 20.395L280.49 20.3849C278.994 18.7064 277.083 17.5942 274.646 16.9774C272.391 16.3808 269.085 16.0977 264.524 16.0977C259.56 16.0977 256.354 16.674 254.089 17.5436C253.078 17.9076 251.976 18.6963 251.167 19.4648V17.7964H244.736V51.4373H251.198V30.0616C251.198 24.4801 256.9 22.2758 262.583 22.2758H265.434C271.117 22.2758 276.881 24.4801 276.881 30.0616V51.4272H283.251V33.0749C283.261 28.9089 283.099 26.3709 282.735 24.8542Z" fill="#ED1C24"/>
<path d="M174.067 15.9863H180.498C180.569 12.5382 180.69 9.26213 181.064 7.76562C181.368 6.27924 182.035 5.00519 183.006 4.03448C184.128 2.68966 185.695 1.71895 187.707 1.05159C189.649 0.525797 192.955 0.0808919 197.283 0.0101115L203.32 0L197.516 5.66243C197.303 5.66243 195.261 5.67255 195.059 5.67255C186.514 5.67255 187.111 11.1429 187.111 15.9863H202.137L196.06 22.1745H186.959L186.99 51.3765H180.498V22.1745H174.067V15.9863Z" fill="#ED1C24"/>
<path d="M167.646 4.9248V11.5175H174.077V4.9248H167.646Z" fill="#ED1C24"/>
<path d="M117.999 33.7818C117.999 37.7759 117.534 41.0722 116.603 43.5293C115.663 46.0875 112.468 51.8713 96.9366 51.8713C81.4054 51.8713 78.2101 46.0875 77.2698 43.5293C76.3395 41.0722 75.8744 37.7759 75.8744 33.7818C75.8744 29.7777 76.3395 26.4915 77.2698 24.0344C78.2101 21.4762 81.4054 15.6924 96.9366 15.6924C112.468 15.6924 115.663 21.466 116.603 24.0344C117.524 26.4915 117.999 29.7777 117.999 33.7818ZM109.869 26.0465C109.273 24.5905 108.231 23.6501 106.634 23.094C104.975 22.5581 102.053 22.2547 96.9366 22.1738C91.8303 22.2446 88.9081 22.5581 87.2397 23.094C85.6421 23.6501 84.6006 24.5905 84.004 26.0465C83.5288 27.1588 82.9929 29.8687 82.9929 33.7818C82.9929 37.695 83.5288 40.3948 84.004 41.5171C84.6006 42.9732 85.6421 43.9136 87.2397 44.4697C88.898 45.0056 91.8202 45.3089 96.9366 45.3898C102.043 45.319 104.965 45.0056 106.634 44.4697C108.231 43.9136 109.273 42.9732 109.869 41.5171C110.344 40.4049 110.88 37.695 110.88 33.7818C110.88 29.8687 110.344 27.1689 109.869 26.0465Z" fill="#0061AF"/>
<path d="M240.024 33.7818C240.024 37.7759 239.559 41.0722 238.629 43.5293C237.689 46.0875 234.493 51.8713 218.962 51.8713C203.431 51.8713 200.236 46.0875 199.295 43.5293C198.365 41.0722 197.9 37.7759 197.9 33.7818C197.9 29.7777 198.365 26.4915 199.295 24.0344C200.236 21.4762 203.431 15.6924 218.962 15.6924C234.493 15.6924 237.689 21.466 238.629 24.0344C239.559 26.4915 240.024 29.7777 240.024 33.7818ZM231.895 26.0465C231.298 24.5905 230.257 23.6501 228.659 23.094C226.991 22.5581 224.068 22.2547 218.962 22.1738C213.856 22.2446 210.934 22.5581 209.265 23.094C207.668 23.6501 206.626 24.5905 206.029 26.0465C205.554 27.1588 205.018 29.8687 205.018 33.7818C205.018 37.695 205.554 40.3948 206.029 41.5171C206.626 42.9732 207.668 43.9136 209.265 44.4697C210.923 45.0056 213.846 45.3089 218.962 45.3898C224.068 45.319 226.991 45.0056 228.659 44.4697C230.257 43.9136 231.298 42.9732 231.895 41.5171C232.37 40.4049 232.906 37.695 232.906 33.7818C232.906 29.8687 232.37 27.1689 231.895 26.0465Z" fill="#ED1C24"/>
<path d="M70.7277 24.793C70.3232 23.0539 69.5851 21.5978 68.4829 20.3339L68.4728 20.3238C66.9662 18.6452 65.0349 17.533 62.5879 16.9162C60.323 16.3196 57.0468 16.0365 52.4562 16.0365C47.4409 16.0365 44.0435 16.4409 41.7482 17.3004H41.738C39.8472 17.988 38.2698 19.2519 37.107 20.9911C35.752 19.171 34.0735 17.9273 31.9804 17.2195C29.6042 16.4207 25.1855 16.0264 19.6141 16.0264C15.4279 16.0264 12.5563 16.3196 10.8272 16.9364L10.807 16.9465C9.5026 17.442 8.25889 18.2711 7.0354 19.4542C7.0354 18.4026 7.0354 17.7352 7.0354 17.7352H0.574158V51.366H6.99496V30.0004C6.99496 24.4189 12.6675 22.2146 18.4007 22.2146H21.2724C27.0056 22.2146 32.7287 24.4189 32.7287 30.0004V51.366H39.1495V30.0004C39.1495 24.4189 44.7513 22.2146 50.4845 22.2146H53.3561C59.0894 22.2146 64.8327 24.4189 64.8327 30.0004V51.366H71.2434V33.0238C71.2535 28.8579 71.0917 26.3199 70.7277 24.793Z" fill="#0061AF"/>
<path d="M326.103 36.2389H329.39C329.43 35.4502 329.46 34.6312 329.46 33.7818C329.46 29.7777 328.995 26.4915 328.065 24.0344C327.125 21.4762 323.929 15.6924 308.398 15.6924C292.867 15.6924 289.672 21.466 288.731 24.0344C287.801 26.4915 287.336 29.7777 287.336 33.7818C287.336 37.7759 287.801 41.0722 288.731 43.5293C289.672 46.0875 292.867 51.8713 308.398 51.8713C323.929 51.8713 327.125 46.0875 328.065 43.5293C328.146 43.3069 328.227 43.0642 328.298 42.8316H320.542C319.946 43.5597 319.137 44.0956 318.085 44.4596C316.417 44.9955 313.494 45.2988 308.388 45.3797C303.282 45.3089 300.36 44.9955 298.691 44.4596C297.094 43.9034 296.052 42.9631 295.456 41.507C295.092 40.6475 294.687 38.8376 294.525 36.2693H326.093V36.2389H326.103ZM298.711 23.1041C300.37 22.5682 303.292 22.2649 308.408 22.184C313.515 22.2547 316.437 22.5682 318.105 23.1041C319.703 23.6602 320.744 24.6006 321.341 26.0567C321.654 26.7847 321.988 28.2003 322.19 30.1923H294.636C294.829 28.2003 295.172 26.7847 295.486 26.0567C296.072 24.6006 297.114 23.6602 298.711 23.1041Z" fill="#ED1C24"/>
<path d="M167.646 15.9858V51.3659H174.077V15.9858H167.646Z" fill="#0061AF"/>
<path d="M161.721 24.0352C160.781 21.4769 157.585 15.6932 142.054 15.6932C136.109 15.6932 131.983 16.5425 129.091 17.7357V0.0102539H122.67V51.4676H129.091V49.8397C131.983 51.0328 136.109 51.8822 142.054 51.8822C157.585 51.8822 160.781 46.1085 161.721 43.5402C162.651 41.0831 163.116 37.7868 163.116 33.7927C163.116 29.7886 162.651 26.4922 161.721 24.0352ZM154.987 41.5179C154.39 42.974 153.349 43.9143 151.751 44.4705C150.083 45.0064 147.16 45.3097 142.054 45.3906C136.948 45.3198 134.936 45.0064 133.267 44.4705C131.67 43.9143 130.628 42.974 130.032 41.5179C129.657 40.6382 129.243 38.7575 129.081 36.0779V31.4873C129.243 28.8078 129.657 26.927 130.032 26.0473C130.628 24.5913 131.67 23.6509 133.267 23.0948C134.926 22.5589 136.938 22.2555 142.054 22.1746C147.16 22.2454 150.083 22.5589 151.751 23.0948C153.349 23.6509 154.39 24.5913 154.987 26.0473C155.462 27.1596 155.998 29.8695 155.998 33.7826C155.998 37.6958 155.462 40.4057 154.987 41.5179Z" fill="#0061AF"/>
</svg>
